%YAML 1.1
%TAG !u! tag:unity3d.com,2011:
--- !u!114 &11400000
MonoBehaviour:
  m_ObjectHideFlags: 0
  m_CorrespondingSourceObject: {fileID: 0}
  m_PrefabInstance: {fileID: 0}
  m_PrefabAsset: {fileID: 0}
  m_GameObject: {fileID: 0}
  m_Enabled: 1
  m_EditorHideFlags: 0
  m_Script: {fileID: 11500000, guid: 416b11fce6b4085438eb4c08641f4001, type: 3}
  m_Name: Exit00
  m_EditorClassIdentifier: 
  id: 5
  state: 0
  Actions:
  - {fileID: 11400000, guid: e9fb2c88f3d4ca9479b29c9c43f761e6, type: 2}
  AwP:
  - Action: {fileID: 11400000, guid: 3db5d547213afca45ba573bf879983b3, type: 2}
    parameter: 5
